{
  "favorites": [],
  "lookup_history": [
    "item:mcdw:item_bee_stinger",
    "item:minecraft:enchanted_book{StoredEnchantments:[{id:\"mcdw:swirling\",lvl:3s}]}",
    "item:bewitchment:druid_band",
    "item:betterend:crystalite_helmet{Damage:0,Enchantments:[{id:\"bewitchment:magic_protection\",lvl:4s},{id:\"minecraft:thorns\",lvl:3s},{id:\"minecraft:respiration\",lvl:3s},{id:\"combatroll:multi_roll\",lvl:4s},{id:\"minecraft:aqua_affinity\",lvl:1s},{id:\"minecraft:unbreaking\",lvl:3s}]}",
    "item:betterend:crystalite_boots{Damage:0,Enchantments:[{id:\"minecraft:protection\",lvl:4s},{id:\"minecraft:thorns\",lvl:3s},{id:\"additionaladditions:speed\",lvl:3s},{id:\"minecraft:unbreaking\",lvl:3s}]}",
    "item:betterend:crystalite_leggings{Damage:0,Enchantments:[{id:\"minecraft:protection\",lvl:4s},{id:\"minecraft:thorns\",lvl:3s},{id:\"minecraft:unbreaking\",lvl:3s},{id:\"combatroll:acrobat\",lvl:10s}]}",
    "item:betterend:crystalite_chestplate{Damage:0,Enchantments:[{id:\"minecraft:protection\",lvl:4s},{id:\"minecraft:thorns\",lvl:3s}]}",
    "item:betterend:leather_wrapped_stick",
    {
      "type": "item",
      "id": "betterarcheology:bomb",
      "amount": 16
    },
    "item:betterend:aeternium_sword{Damage:0}",
    "item:betterend:aeternium_sword_handle",
    {
      "type": "item",
      "id": "botania:life_essence",
      "amount": 8
    },
    "item:vinery:bottle_mojang_noir{Year:0}",
    "item:brewery:rope",
    "item:brewery:copper_brewingstation",
    "item:brewery:wooden_brewingstation",
    "item:brewery:netherite_brewingstation",
    "item:davespotioneering:compound_brewing_stand",
    "item:davespotioneering:potion_injector",
    "item:davespotioneering:rudimentary_gauntlet{Damage:0}",
    "item:davespotioneering:netherite_gauntlet{Damage:0}",
    "item:davespotioneering:potioneer_gauntlet",
    "item:davespotioneering:reinforced_cauldron",
    "item:botania:thorn_chakram",
    "item:botania:star_sword{Damage:0}",
    "item:botania:rune_earth",
    "item:botania:dirt_rod",
    "item:botania:missile_rod",
    "item:botania:gravity_rod",
    "item:botania:rainbow_rod",
    "item:botania:exchange_rod",
    "item:botania:smelt_rod",
    "item:botania:divining_rod",
    "item:botania:fire_rod",
    "item:botania:tornado_rod",
    "item:botania:water_rod",
    "item:botania:cobble_rod",
    "item:botania:terraform_rod",
    "item:botania:skydirt_rod",
    "item:botania:pixie_dust",
    "item:botania:mana_spreader",
    "item:botania:mana_string",
    "item:botania:manaweave_cloth",
    "item:botania:teru_teru_bozu",
    "item:minecraft:acacia_fence",
    "item:botania:livingrock",
    "item:botania:mana_pool{RenderFull:1b}",
    "item:botania:manasteel_ingot",
    "item:botania:pure_daisy",
    "item:botania:livingwood_log",
    "#item:botania:livingwood_logs",
    "item:botania:livingwood_twig",
    "item:botania:twig_wand{color1:0,color2:0}",
    "item:botania:manasteel_chestplate{Damage:0}",
    "item:archers:crystal_shortbow{Damage:8,Enchantments:[{id:\"minecraft:power\",lvl:5s},{id:\"mcdw:enigma_resonator\",lvl:3s},{id:\"mcdw:ricochet\",lvl:3s},{id:\"mcdw:accelerate\",lvl:3s}],MCDEnchantments:{Gilding:[],NextRerollCost:{Normal:1,Powerful:3},Slots:{FIRST:{Choices:{FIRST:\"mcdw:replenish\",SECOND:\"minecraft:infinity\",THIRD:\"mcdw:enigma_resonator\"},Chosen:\"THIRD\"},SECOND:{Choices:{FIRST:\"mcdw:overcharge\",SECOND:\"minecraft:punch\",THIRD:\"minecraft:power\"},Chosen:\"THIRD\"},THIRD:{Choices:{FIRST:\"mcdw:ricochet\",SECOND:\"mcdw:charge\"},Chosen:\"FIRST\"}}}}",
    "item:archers:ranger_armor_chest{Damage:0}",
    "item:archers:archer_armor_chest{Damage:0}",
    "item:archers:mechanic_shortbow{Damage:0}",
    "item:archers:royal_longbow{Damage:0}",
    "item:archers:ranger_armor_head{Damage:0}",
    "item:archers:crystal_longbow{Damage:0}",
    "item:paladins:aeternium_claymore{Damage:0}",
    "item:wizards:staff_crystal_arcane{Damage:0}",
    "item:jewelry:unique_arcane_ring",
    "item:jewelry:unique_arcane_necklace",
    "item:wizards:arcane_robe_head{Damage:0}",
    "item:wizards:staff_smaragdant_frost{Damage:0}",
    "item:mcdw:crossbow_firebolt_thrower{Charged:0b,ChargedProjectiles:[],Damage:0,Enchantments:[{id:\"mcdw:fuse_shot\",lvl:1s},{id:\"mcdw:chain_reaction\",lvl:1s},{id:\"mcdw:void_shot\",lvl:3s},{id:\"mcdw:bonus_shot\",lvl:3s},{id:\"mcdw:ricochet\",lvl:3s},{id:\"minecraft:quick_charge\",lvl:3s},{id:\"additionaladditions:precision\",lvl:3s}],MCDEnchantments:{Gilding:[],NextRerollCost:{Normal:1,Powerful:3},Slots:{FIRST:{Choices:{FIRST:\"mcdw:enigma_resonator\",SECOND:\"mcdw:void_shot\",THIRD:\"mcdw:poison_cloud\"},Chosen:\"SECOND\"},SECOND:{Choices:{FIRST:\"minecraft:quick_charge\",SECOND:\"mcdw:ricochet\",THIRD:\"mcdw:growing\"},Chosen:\"SECOND\"},THIRD:{Choices:{FIRST:\"mcdw:bonus_shot\",SECOND:\"minecraft:multishot\"},Chosen:\"FIRST\"}}}}",
    "item:mcdw:sword_masters_katana{Damage:0,Enchantments:[{id:\"mcdw:critical_hit\",lvl:1s}]}",
    "item:jewelry:netherite_tanzanite_ring",
    "item:jewelry:netherite_ruby_ring",
    "item:jewelry:jade_ring",
    "item:jewelry:citrine_ring",
    "item:jewelry:ruby_ring",
    "item:jewelry:topaz_ring",
    "item:wizards:staff_netherite_frost{Damage:0}",
    "item:wizards:frost_robe_legs{Damage:0}",
    "item:runes:frost_stone",
    "item:wizards:frost_robe_chest{Damage:0}",
    "item:wizards:fire_robe_chest{Damage:0}",
    "item:wizards:fire_robe_head{Damage:0}",
    "item:wizards:arcane_robe_chest{Damage:0}",
    "item:wizards:arcane_robe_legs{Damage:0}",
    "item:wizards:arcane_robe_feet{Damage:0}",
    "item:wizards:frost_robe_head{Damage:0}",
    "item:paladins:prior_robe_head{Damage:0}",
    "item:paladins:priest_robe_head{Damage:0}",
    "item:paladins:priest_robe_chest{Damage:0}",
    "item:wizards:wand_arcane{Damage:0}",
    "item:scriptor:spellbook_binder",
    "item:scriptor:book_of_books{}",
    "item:minecraft:dark_oak_door",
    "item:bewitchment:specter_bangle",
    {
      "type": "item",
      "id": "bewitchment:fiery_serum",
      "remainder": "item:minecraft:glass_bottle"
    },
    {
      "type": "item",
      "id": "bewitchment:grim_elixir",
      "remainder": "item:minecraft:glass_bottle"
    },
    "item:bewitchment:besmirched_wool",
    "item:bewitchment:besmirched_hat{Damage:0}",
    "item:bewitchment:book_of_shadows",
    "item:create:fluid_tank",
    "item:create:fluid_pipe",
    "item:create:mechanical_pump",
    "item:create:empty_blaze_burner",
    "item:create:blaze_burner",
    "item:techreborn:gold_plate",
    "#item:c:gold_plates",
    "item:create:steam_engine",
    "item:create:golden_sheet",
    "item:create:railway_casing",
    "item:createaddition:capacitor",
    "item:createaddition:alternator",
    "item:createaddition:electric_motor",
    "item:create:brown_toolbox",
    "item:create:blaze_cake",
    "item:ae2:singularity",
    "item:techreborn:copper_cable",
    "item:techreborn:rubber",
    "item:techreborn:copper_plate",
    "#item:c:copper_plates",
    "item:techreborn:coal_dust",
    "item:techreborn:tin_plate",
    "item:techreborn:peridot_dust",
    "item:techreborn:refined_iron_ingot",
    "item:techreborn:insulated_copper_cable",
    "item:techreborn:cell{fluid:\"techreborn:silicon\"}",
    "item:techreborn:cell",
    {
      "type": "item",
      "id": "techreborn:beryllium_bucket",
      "remainder": "item:minecraft:bucket"
    },
    "item:techreborn:neutron_reflector",
    "item:techreborn:peridot_plate",
    "item:techreborn:electronic_circuit",
    "item:techreborn:silicon_plate",
    "item:techreborn:synthetic_redstone_crystal",
    "item:techreborn:platinum_plate",
    "item:techreborn:thick_neutron_reflector",
    "item:techreborn:iridium_ingot",
    "item:techreborn:data_storage_core",
    "item:techreborn:advanced_circuit",
    "item:techreborn:energy_crystal",
    "item:techreborn:industrial_circuit",
    "item:techreborn:lazurite_dust",
    "item:techreborn:lazurite_plate",
    "item:techreborn:iridium_neutron_reflector",
    "item:techreborn:data_storage_chip",
    "item:techreborn:lapotron_crystal",
    "item:techreborn:energy_flow_chip",
    "item:techreborn:tungsten_ingot",
    "item:techreborn:iridium_plate",
    "item:techreborn:advanced_alloy_plate",
    "#item:c:diamond_dusts",
    "item:techreborn:iridium_alloy_ingot",
    "item:techreborn:iridium_alloy_plate",
    "item:techreborn:tin_ingot",
    "item:techreborn:cell{fluid:\"techreborn:helium\"}",
    "item:techreborn:helium_coolant_cell_60k",
    {
      "type": "fluid",
      "id": "techreborn:helium",
      "amount": 81000
    },
    {
      "type": "item",
      "id": "techreborn:helium_bucket",
      "remainder": "item:minecraft:bucket"
    },
    "item:techreborn:superconductor",
    "item:techreborn:steel_ingot",
    "item:techreborn:hot_tungstensteel_ingot",
    "item:techreborn:tungstensteel_ingot",
    "item:techreborn:tungstensteel_plate",
    "item:ae2:condenser",
    "item:techreborn:quantum_chestplate",
    "item:techreborn:quantum_helmet",
    "item:techreborn:quantum_boots",
    "item:techreborn:quantum_leggings",
    "item:ae2:formation_core",
    "item:ae2:terminal",
    "item:techreborn:superconductor_cable",
    "item:techreborn:interdimensional_su",
    "item:techreborn:lsu_storage",
    "item:techreborn:computer_cube",
    "item:techreborn:quantum_solar_panel",
    "item:techreborn:cell{fluid:\"techreborn:beryllium\"}",
    "item:techreborn:industrial_electrolyzer",
    "item:techreborn:cell{fluid:\"techreborn:wolframium\"}",
    "item:techreborn:platinum_dust",
    "item:techreborn:fusion_control_computer",
    "item:techreborn:sap",
    {
      "type": "item",
      "id": "minecraft:raw_iron",
      "amount": 64
    },
    "item:mcdw:bow_bonebow{Damage:0,Enchantments:[{id:\"mcdw:growing\",lvl:1s}]}",
    "item:mcdw:bow_purple_storm{Damage:0,Enchantments:[{id:\"mcdw:accelerate\",lvl:1s}]}",
    "item:mcdw:hammer_stormlander{Damage:0,Enchantments:[{id:\"mcdw:thundering\",lvl:1s}]}",
    "item:mcdw:gauntlet_soul_fists{Damage:0,Enchantments:[{id:\"mcdw:enigma_resonator\",lvl:1s}]}",
    "item:minecraft:jungle_slab",
    "item:minecraft:enchanting_table",
    "item:techreborn:hot_tungstensteel_storage_block",
    "item:plethora:module_laser",
    "item:additionaladditions:crossbow_with_spyglass{Damage:0}",
    "item:techreborn:steel_chestplate{Damage:0}",
    "item:additionaladditions:rose_gold_alloy",
    "item:additionaladditions:rose_gold_sword{Damage:0}",
    "item:guarding:netherite_shield{Damage:0}",
    "item:techreborn:nanosaber{isActive:0b}",
    "item:twigs:bloodstone",
    {
      "type": "item",
      "id": "minecraft:end_stone_brick_wall",
      "amount": 10
    },
    "item:minecraft:dragon_head",
    "item:betterend:aeternium_chestplate{Damage:0}",
    "item:techreborn:lapotronic_orb{energy:100000000L}",
    "item:techreborn:raw_iridium",
    "item:additionaladditions:gilded_netherite_upgrade",
    {
      "type": "item",
      "id": "twigs:bamboo_leaves",
      "amount": 9
    },
    "item:minecraft:composter",
    {
      "type": "item",
      "id": "vinery:taiga_grapes_red",
      "amount": 2
    },
    {
      "type": "item",
      "id": "bewitchment:belladonna",
      "amount": 6
    },
    "item:botania:blue_mystical_flower",
    "item:botania:magenta_shiny_flower",
    "item:botania:cyan_shiny_flower",
    "item:botania:brown_shiny_flower",
    "item:botania:purple_double_flower",
    "item:botania:purple_mystical_flower",
    "item:scout:tanned_leather",
    {
      "type": "item",
      "id": "minecraft:leather",
      "amount": 4
    },
    {
      "type": "item",
      "id": "minecraft:string",
      "amount": 2
    },
    "item:twigs:tangerine_seashell",
    {
      "type": "item",
      "id": "vinery:apple_mash",
      "amount": 8
    },
    {
      "type": "item",
      "id": "minecraft:white_wool",
      "amount": 32
    },
    "item:vinery:apple_press",
    "item:vinery:fermentation_barrel",
    "item:vinery:dark_cherry_log",
    "item:vinery:dark_cherry_wine_rack_big",
    "item:vinery:white_grapejuice",
    {
      "type": "item",
      "id": "vinery:jungle_grapes_red",
      "amount": 42
    },
    "item:minecraft:candle",
    "item:minecraft:pink_candle",
    {
      "type": "item",
      "id": "minecraft:rotten_flesh",
      "amount": 4
    },
    "item:wizards:wand_novice{Damage:0}",
    "item:minecraft:goat_horn{instrument:\"minecraft:sing_goat_horn\"}",
    "item:createdeco:gold_coin",
    "item:createdeco:copper_coinstack",
    {
      "type": "item",
      "id": "minecraft:emerald",
      "amount": 22
    },
    "item:bewitchment:harbinger{Damage:0}",
    "item:betterarcheology:soul_totem{Damage:0}",
    "item:betterarcheology:torrent_totem{Damage:0}",
    "item:betterarcheology:archeology_table",
    "item:computercraft:computer_normal",
    "item:computercraft:computer_advanced{ComputerId:0}",
    {
      "type": "item",
      "id": "techreborn:raw_tin",
      "amount": 6
    },
    "item:bewitchment:ectoplasm",
    "item:techreborn:scrap_box",
    "item:minecraft:bow{Damage:4}",
    "item:minecraft:blue_ice",
    "item:minecraft:packed_ice",
    "item:minecraft:ice",
    "#item:runes:rune_crafting/reagent/frost_medium",
    "item:botania:conjuration_catalyst",
    "item:minecraft:snowball",
    "item:minecraft:diamond_horse_armor",
    "item:farmersdelight:horse_feed",
    "item:minecraft:leather_horse_armor",
    "item:minecraft:iron_horse_armor",
    "item:minecraft:golden_horse_armor",
    "item:bewitchment:snake_tongue",
    "item:techreborn:compressor",
    "item:techreborn:recycler",
    "item:minecraft:saddle",
    "item:techreborn:resin_basin",
    "item:techreborn:manual",
    "item:minecraft:flint_and_steel{Damage:5}",
    "item:techreborn:solid_fuel_generator",
    "item:techreborn:diesel_generator",
    "item:techreborn:gas_turbine",
    "item:techreborn:cell{fluid:\"techreborn:heliumplasma\"}",
    {
      "type": "fluid",
      "id": "techreborn:heliumplasma",
      "amount": 81000
    },
    "item:techreborn:plasma_generator",
    "item:techreborn:thermal_generator",
    "item:techreborn:wind_mill",
    "item:techreborn:ultimate_solar_panel",
    "item:techreborn:industrial_solar_panel",
    "item:techreborn:advanced_solar_panel",
    "item:techreborn:basic_solar_panel",
    "item:techreborn:uu_matter",
    "item:techreborn:netherite_nugget",
    "item:createdeco:netherite_nugget",
    "item:minecraft:netherite_ingot",
    "item:techreborn:template_template",
    "item:techreborn:electric_furnace",
    "item:techreborn:iron_furnace",
    "item:archers:netherite_longbow{Damage:0}",
    "item:archers:netherite_heavy_crossbow{Charged:1b,ChargedProjectiles:[{Count:1b,id:\"minecraft:arrow\"}],Damage:0}",
    "item:techreborn:alloy_smelter",
    "item:techreborn:bronze_ingot",
    "item:techreborn:bronze_dust",
    "item:techreborn:wrench",
    "item:techreborn:tin_cable",
    "item:techreborn:glassfiber_cable",
    "item:techreborn:insulated_hv_cable",
    "item:techreborn:insulated_gold_cable",
    "item:techreborn:gold_cable",
    "item:techreborn:low_voltage_su",
    "item:techreborn:medium_voltage_su",
    "item:techreborn:lithium_ion_battery",
    "item:techreborn:red_cell_battery{energy:10000L}",
    "item:techreborn:extractor",
    "item:minecraft:netherite_upgrade_smithing_template",
    "item:ae2:fluix_upgrade_smithing_template",
    "item:techreborn:industrial_unit_upgrader",
    "item:techreborn:advanced_unit_upgrader",
    "item:techreborn:basic_unit_upgrader",
    "item:techreborn:overclocker_upgrade",
    "item:techreborn:water_coolant_cell_10k",
    "item:techreborn:refined_iron_storage_block",
    "item:techreborn:basic_machine_frame",
    "item:techreborn:treetap{Damage:0}",
    {
      "type": "item",
      "id": "techreborn:bauxite_ore",
      "amount": 12
    },
    "item:scout:pouch{Items:[{Slot:0,Stack:{Count:0b,id:\"minecraft:air\"}},{Slot:1,Stack:{Count:0b,id:\"minecraft:air\"}},{Slot:2,Stack:{Count:0b,id:\"minecraft:air\"}}]}",
    "item:scout:satchel{Items:[{Slot:0,Stack:{Count:0b,id:\"minecraft:air\"}},{Slot:1,Stack:{Count:0b,id:\"minecraft:air\"}},{Slot:2,Stack:{Count:0b,id:\"minecraft:air\"}},{Slot:3,Stack:{Count:0b,id:\"minecraft:air\"}},{Slot:4,Stack:{Count:0b,id:\"minecraft:air\"}},{Slot:5,Stack:{Count:0b,id:\"minecraft:air\"}},{Slot:6,Stack:{Count:0b,id:\"minecraft:air\"}},{Slot:7,Stack:{Count:0b,id:\"minecraft:air\"}},{Slot:8,Stack:{Count:0b,id:\"minecraft:air\"}}]}",
    "item:runes:fire_stone",
    "item:techreborn:peridot_gem",
    "item:jewelry:emerald_necklace",
    "item:jewelry:diamond_necklace",
    "item:jewelry:gold_ring",
    "item:jewelry:iron_ring",
    "item:techreborn:aluminum_ingot",
    {
      "type": "item",
      "id": "techreborn:aluminum_dust",
      "amount": 8
    },
    {
      "type": "item",
      "id": "techreborn:bauxite_dust",
      "amount": 2
    },
    {
      "type": "item",
      "id": "techreborn:galena_dust",
      "amount": 2
    },
    "item:techreborn:galena_ore",
    "item:scout:satchel_strap",
    "item:jewelry:unique_attack_ring",
    "item:jewelry:unique_tank_necklace",
    "item:runes:healing_stone",
    "item:spell_engine:spell_binding",
    "item:techreborn:sapphire_dust",
    {
      "type": "item",
      "id": "techreborn:sapphire_gem",
      "amount": 12
    },
    {
      "type": "item",
      "id": "techreborn:ruby_gem",
      "amount": 27
    },
    "item:techreborn:red_garnet_gem",
    "item:bewitchment:mending_poppet{Damage:0}",
    "item:bewitchment:garlic",
    "item:bewitchment:grilled_garlic",
    {
      "type": "item",
      "id": "minecraft:pink_petals",
      "amount": 2
    },
    {
      "type": "item",
      "id": "minecraft:dark_oak_fence",
      "amount": 3
    },
    {
      "type": "item",
      "id": "minecraft:iron_ingot",
      "amount": 5
    },
    {
      "type": "item",
      "id": "bewitchment:salt",
      "amount": 23
    },
    {
      "type": "item",
      "id": "minecraft:bamboo",
      "amount": 27
    },
    "item:techreborn:nano_chestplate",
    "item:techreborn:bronze_chestplate{Damage:0}",
    "item:minecraft:copper_ingot",
    {
      "type": "item",
      "id": "minecraft:raw_copper",
      "amount": 19
    },
    "item:techreborn:red_garnet_dust",
    "item:techreborn:cell{fluid:\"techreborn:nitrofuel\"}",
    "item:techreborn:nickel_ingot",
    "item:minecraft:spruce_stairs",
    "item:scout:upgraded_satchel{Items:[{Slot:0,Stack:{Count:0b,id:\"minecraft:air\"}},{Slot:1,Stack:{Count:0b,id:\"minecraft:air\"}},{Slot:2,Stack:{Count:0b,id:\"minecraft:air\"}},{Slot:3,Stack:{Count:0b,id:\"minecraft:air\"}},{Slot:4,Stack:{Count:0b,id:\"minecraft:air\"}},{Slot:5,Stack:{Count:0b,id:\"minecraft:air\"}},{Slot:6,Stack:{Count:0b,id:\"minecraft:air\"}},{Slot:7,Stack:{Count:0b,id:\"minecraft:air\"}},{Slot:8,Stack:{Count:0b,id:\"minecraft:air\"}},{Slot:9,Stack:{Count:0b,id:\"minecraft:air\"}},{Slot:10,Stack:{Count:0b,id:\"minecraft:air\"}},{Slot:11,Stack:{Count:0b,id:\"minecraft:air\"}},{Slot:12,Stack:{Count:0b,id:\"minecraft:air\"}},{Slot:13,Stack:{Count:0b,id:\"minecraft:air\"}},{Slot:14,Stack:{Count:0b,id:\"minecraft:air\"}},{Slot:15,Stack:{Count:0b,id:\"minecraft:air\"}},{Slot:16,Stack:{Count:0b,id:\"minecraft:air\"}},{Slot:17,Stack:{Count:0b,id:\"minecraft:air\"}}]}"
  ],
  "craft_history": [
    "botania:gaia_ingot",
    "minecraft:torch",
    "minecraft:iron_sword",
    "minecraft:stick",
    "bclib:tag_shield",
    "minecraft:furnace",
    "minecraft:crafting_table",
    "minecraft:jungle_planks",
    "minecraft:jungle_door",
    "minecraft:bread",
    "minecraft:wheat",
    "minecraft:chest",
    "minecraft:golden_pickaxe",
    "twigs:stick_from_twig",
    "minecraft:oak_boat",
    "minecraft:stone_sword",
    "minecraft:stone_shovel",
    "minecraft:stone_hoe",
    "minecraft:stone_axe",
    "minecraft:stone_pickaxe",
    "minecraft:wooden_axe",
    "minecraft:wooden_pickaxe",
    "minecraft:oak_planks",
    "vinery:seed_from_red_taiga_grape",
    "minecraft:oak_fence",
    "minecraft:straight_to_shapeless/bread",
    "minecraft:oak_door",
    "minecraft:campfire",
    "minecraft:lantern",
    "minecraft:iron_nugget",
    "minecraft:composter",
    "techreborn:crafting_table/misc_block/rubber_slab",
    "techreborn:crafting_table/misc_block/rubber_planks",
    "minecraft:iron_axe",
    "minecraft:birch_planks",
    "minecraft:oak_fence_gate",
    "minecraft:bucket",
    "minecraft:iron_pickaxe",
    "techreborn:crafting_table/armor/sapphire_boots",
    "techreborn:crafting_table/armor/sapphire_helmet",
    "minecraft:diamond_pickaxe",
    "scout:satchel",
    "scout:satchel_strap",
    "minecraft:stone_button",
    "minecraft:iron_chestplate",
    "minecraft:shield",
    "minecraft:cobblestone_stairs",
    "minecraft:ladder",
    "twigs:bone_meal_from_seashells",
    "minecraft:melon_seeds",
    "minecraft:bone_meal",
    "minecraft:white_bed",
    "minecraft:acacia_planks",
    "vinery:wine_press",
    "minecraft:iron_trapdoor",
    "vinery:fermentation_barrel",
    "slabs_stairs_to_block:slabs/acacia_planks",
    "minecraft:barrel",
    "minecraft:acacia_slab",
    "minecraft:shears",
    "vinery:seed_from_red_jungle_grape",
    "minecraft:gold_ingot_from_gold_block",
    "minecraft:lever",
    "minecraft:spruce_planks",
    "minecraft:spruce_boat",
    "minecraft:raw_copper",
    "minecraft:bow",
    "wool_to_string:string",
    "runes:frost_rune_small_hand",
    "minecraft:oak_trapdoor",
    "minecraft:hopper",
    "techreborn:crafting_table/manual",
    "bewitchment:black_dye_from_snake_tongue",
    "techreborn:crafting_table/cable/insulated_copper_cable",
    "techreborn:crafting_table/machine/electric_furnace",
    "techreborn:crafting_table/parts/electronic_circuit",
    "techreborn:crafting_table/machine/iron_furnace_alt",
    "minecraft:flint_and_steel",
    "techreborn:crafting_table/cable/insulated_copper_cable_shapeless",
    "techreborn:crafting_table/cable/copper_cable",
    "techreborn:crafting_table/tool/wrench",
    "techreborn:crafting_table/tool/treetap",
    "techreborn:crafting_table/machine/extractor",
    "minecraft:smithing_table",
    "techreborn:crafting_table/upgrade/overclocker_upgrade",
    "techreborn:crafting_table/parts/water_coolant_cell_10k",
    "techreborn:crafting_table/machine/solid_fuel_generator",
    "techreborn:crafting_table/machine_block/basic_machine_frame",
    "techreborn:crafting_table/ingot/refined_iron_ingot_from_block",
    "minecraft:iron_block",
    "techreborn:crafting_table/battery/red_cell_battery",
    "minecraft:oak_wood",
    "scout:pouch",
    "slabs_stairs_to_block:stairs/oak_planks",
    "runes:fire_rune_small_hand",
    "jewelry:iron_ring",
    "techreborn:crafting_table/armor/peridot_leggings",
    "minecraft:iron_boots",
    "minecraft:iron_leggings",
    "minecraft:oak_button",
    "minecraft:iron_helmet",
    "techreborn:crafting_table/armor/ruby_chestplate",
    "minecraft:bamboo_raft",
    "slabs_stairs_to_block:stairs/bamboo_planks",
    "minecraft:dark_oak_fence",
    "minecraft:bamboo_stairs",
    "minecraft:bamboo_slab",
    "minecraft:bamboo_planks",
    "minecraft:bamboo_block",
    "minecraft:dark_oak_planks",
    "minecraft:iron_ingot_from_nuggets",
    "bewitchment:elder_planks",
    "techreborn:crafting_table/tool/sapphire_pickaxe"
  ],
  "recipe_defaults": {
    "added": [],
    "tags": {},
    "resolutions": {},
    "disabled": []
  },
  "hidden_stacks": []
}